{
  "project_info": {
    "project_number": "200950520125",
    "firebase_url": "https://gaiago-c5bb1.firebaseio.com",
    "project_id": "gaiago-c5bb1",
    "storage_bucket": "gaiago-c5bb1.appspot.com"
  },
  "client": [
    {
      "client_info": {
        "mobilesdk_app_id": "1:200950520125:android:05b620b6011a6a55",
        "android_client_info": {
          "package_name": "com.zeuscode.gaiago"
        }
      },
      "oauth_client": [
        {
          "client_id": "200950520125-ffdtp481hpen272f8s5ag2e9iceqb9lj.apps.googleusercontent.com",
          "client_type": 1,
          "android_info": {
            "package_name": "com.zeuscode.gaiago",
            "certificate_hash": "d9750367c3432f308cc48086c449eb556b18b180"
          }
        },
        {
          "client_id": "200950520125-0a0nmsfkdddtsg74dt6en6f8fik82pgq.apps.googleusercontent.com",
          "client_type": 3
        }
      ],
      "api_key": [
        {
          "current_key": "AIzaSyCT4S0abkevHtjsixiaPY5YLpCw9GMD_Mk"
        }
      ],
      "services": {
        "appinvite_service": {
          "other_platform_oauth_client": [
            {
              "client_id": "200950520125-0a0nmsfkdddtsg74dt6en6f8fik82pgq.apps.googleusercontent.com",
              "client_type": 3
            }
          ]
        }
      }
    }
  ],
  "configuration_version": "1"
}